{
  "success": true,
  "count": 3,
  "pagination": {
    "current_page": 1,
    "total_pages": 5,
    "per_page": 20,
    "total_items": 85
  },
  "data": [
    {
      "id": 1,
      "titulo": "Diseño de interiores moderno",
      "url_imagen": "https://i.pinimg.com/736x/c4/05/4f/c4054f4894c769abee498e3b90211660.jpg",
      "fecha_publicacion": "2024-01-15T10:30:00Z",
      "usuario": {
        "id": 101,
        "nombre_usuario": "ana_design",
        "foto_perfil": "https://i.pinimg.com/1200x/fe/dc/3a/fedc3ac9e3518739bc6557abf20420fa.jpg",
        "fecha_creacion": "2023-03-15T08:00:00Z"
      },
      "etiquetas": [
        {
          "id": 1,
          "nombre": "diseño"
        },
        {
          "id": 2,
          "nombre": "interiores"
        },
        {
          "id": 3,
          "nombre": "moderno"
        }
      ],
      "estadisticas": {
        "total_likes": 42,
        "total_comentarios": 8,
        "total_tableros": 15,
        "ya_me_gusta": true
      },
      "likes": [
        {
          "user_id": 102,
          "nombre_usuario": "carlos_art",
          "foto_perfil": "https://i.pinimg.com/1200x/fe/dc/3a/fedc3ac9e3518739bc6557abf20420fa.jpg",
          "created_at": "2024-01-15T11:00:00Z"
        },
        {
          "user_id": 103,
          "nombre_usuario": "maria_home",
          "foto_perfil": "https://i.pinimg.com/736x/9c/65/0c/9c650ca064b75b734ad41caf39883788.jpg",
          "created_at": "2024-01-15T11:30:00Z"
        }
      ],
      "comentarios": [
        {
          "id": 1,
          "contenido": "¡Me encanta este estilo!",
          "fecha_publicacion": "2024-01-15T11:15:00Z",
          "fecha_actualizacion": "2024-01-15T11:15:00Z",
          "usuario": {
            "id": 102,
            "nombre_usuario": "carlos_art",
            "foto_perfil": "https://i.pinimg.com/736x/9c/65/0c/9c650ca064b75b734ad41caf39883788.jpg"
          }
        },
        {
          "id": 2,
          "contenido": "¿De dónde es la inspiración?",
          "fecha_publicacion": "2024-01-15T12:00:00Z",
          "fecha_actualizacion": "2024-01-15T12:00:00Z",
          "usuario": {
            "id": 104,
            "nombre_usuario": "pedro_design",
            "foto_perfil": "https://i.pinimg.com/1200x/fe/dc/3a/fedc3ac9e3518739bc6557abf20420fa.jpg"
          }
        }
      ],
      "tableros": [
        {
          "tablero_id": 5,
          "titulo": "Ideas para mi casa",
          "portada": "https://ejemplo.com/boards/casa.jpg",
          "usuario_guardado": {
            "id": 105,
            "nombre_usuario": "laura_home",
            "foto_perfil": "https://ejemplo.com/avatars/laura.jpg"
          },
          "fecha_guardado": "2024-01-15T13:20:00Z"
        },
        {
          "tablero_id": 8,
          "titulo": "Diseño moderno",
          "portada": "https://ejemplo.com/boards/moderno.jpg",
          "usuario_guardado": {
            "id": 102,
            "nombre_usuario": "carlos_art",
            "foto_perfil": "https://ejemplo.com/avatars/carlos.jpg"
          },
          "fecha_guardado": "2024-01-15T14:30:00Z"
        }
      ]
    },
    {
      "id": 2,
      "titulo": "Recetas de pasta casera",
      "url_imagen": "https://ejemplo.com/images/pasta-casera.jpg",
      "fecha_publicacion": "2024-01-14T18:45:00Z",
      "usuario": {
        "id": 102,
        "nombre_usuario": "carlos_art",
        "foto_perfil": "https://ejemplo.com/avatars/carlos.jpg",
        "fecha_creacion": "2023-06-20T14:30:00Z"
      },
      "etiquetas": [
        {
          "id": 4,
          "nombre": "recetas"
        },
        {
          "id": 5,
          "nombre": "comida"
        },
        {
          "id": 6,
          "nombre": "pasta"
        },
        {
          "id": 7,
          "nombre": "casero"
        }
      ],
      "estadisticas": {
        "total_likes": 89,
        "total_comentarios": 15,
        "total_tableros": 32,
        "ya_me_gusta": false
      },
      "likes": [
        {
          "user_id": 101,
          "nombre_usuario": "ana_design",
          "foto_perfil": "https://ejemplo.com/avatars/ana.jpg",
          "created_at": "2024-01-14T19:00:00Z"
        },
        {
          "user_id": 103,
          "nombre_usuario": "maria_home",
          "foto_perfil": "https://ejemplo.com/avatars/maria.jpg",
          "created_at": "2024-01-14T20:15:00Z"
        }
      ],
      "comentarios": [
        {
          "id": 3,
          "contenido": "¡La probé y quedó deliciosa!",
          "fecha_publicacion": "2024-01-14T20:30:00Z",
          "fecha_actualizacion": "2024-01-14T20:30:00Z",
          "usuario": {
            "id": 103,
            "nombre_usuario": "maria_home",
            "foto_perfil": "https://ejemplo.com/avatars/maria.jpg"
          }
        }
      ],
      "tableros": [
        {
          "tablero_id": 12,
          "titulo": "Recetas favoritas",
          "portada": "https://ejemplo.com/boards/recetas.jpg",
          "usuario_guardado": {
            "id": 103,
            "nombre_usuario": "maria_home",
            "foto_perfil": "https://ejemplo.com/avatars/maria.jpg"
          },
          "fecha_guardado": "2024-01-14T21:00:00Z"
        }
      ]
    },
    {
      "id": 3,
      "titulo": "Ideas de viaje a Japón",
      "url_imagen": "https://ejemplo.com/images/japon-viaje.jpg",
      "fecha_publicacion": "2024-01-13T09:15:00Z",
      "usuario": {
        "id": 103,
        "nombre_usuario": "maria_home",
        "foto_perfil": "https://ejemplo.com/avatars/maria.jpg",
        "fecha_creacion": "2023-01-10T10:00:00Z"
      },
      "etiquetas": [
        {
          "id": 8,
          "nombre": "viajes"
        },
        {
          "id": 9,
          "nombre": "japon"
        },
        {
          "id": 10,
          "nombre": "turismo"
        }
      ],
      "estadisticas": {
        "total_likes": 156,
        "total_comentarios": 24,
        "total_tableros": 47,
        "ya_me_gusta": true
      },
      "likes": [
        {
          "user_id": 101,
          "nombre_usuario": "ana_design",
          "foto_perfil": "https://ejemplo.com/avatars/ana.jpg",
          "created_at": "2024-01-13T10:00:00Z"
        },
        {
          "user_id": 102,
          "nombre_usuario": "carlos_art",
          "foto_perfil": "https://ejemplo.com/avatars/carlos.jpg",
          "created_at": "2024-01-13T11:30:00Z"
        }
      ],
      "comentarios": [
        {
          "id": 4,
          "contenido": "¡Sueño con visitar Japón!",
          "fecha_publicacion": "2024-01-13T10:30:00Z",
          "fecha_actualizacion": "2024-01-13T10:30:00Z",
          "usuario": {
            "id": 104,
            "nombre_usuario": "pedro_design",
            "foto_perfil": "https://ejemplo.com/avatars/pedro.jpg"
          }
        },
        {
          "id": 5,
          "contenido": "Recomiendan alguna época del año?",
          "fecha_publicacion": "2024-01-13T15:20:00Z",
          "fecha_actualizacion": "2024-01-13T15:20:00Z",
          "usuario": {
            "id": 105,
            "nombre_usuario": "laura_home",
            "foto_perfil": "https://ejemplo.com/avatars/laura.jpg"
          }
        }
      ],
      "tableros": [
        {
          "tablero_id": 15,
          "titulo": "Viajes soñados",
          "portada": "https://ejemplo.com/boards/viajes.jpg",
          "usuario_guardado": {
            "id": 101,
            "nombre_usuario": "ana_design",
            "foto_perfil": "https://ejemplo.com/avatars/ana.jpg"
          },
          "fecha_guardado": "2024-01-13T12:00:00Z"
        }
      ]
    }
  ],
  "metadata": {
    "version": "1.0",
    "timestamp": "2024-01-15T16:00:00Z",
    "endpoint": "/pines"
  }
}